dumps/capture.vcd
$version Generated by PS2Sniffer $end
$date Mon Nov 7 21:25:00 2022 $end
$timescale 1us $end
$scope module TOP $end
$var wire 1 c clk $end
$var wire 1 d data $end
$upscope $end
$enddefinitions $end
#81553387
1c
1d
#96705044
0c
#96792050
1c
#96926829
0c
#96926917
1c
#96927473
0c
#96927480
0d
#96927551
1c
#96928226
0c
#96928243
1d
#96928263
1c
#96928302
0c
#96928340
1c
#96928377
0c
#96928416
1c
#96928454
0c
#96928491
1c
#96928531
0c
#96928568
1c
#96928606
0c
#96928645
1c
#96928682
0c
#96928720
1c
#96928757
0c
#96928796
1c
#96928842
0c
#96928881
1c
#96928918
0c
#96928957
1c
#96929008
0d
#96929027
0c
#96929066
1c
#96929083
1d
#96929086
0c
#96929163
1c
#96929200
0d
#96929220
0c
#96929258
1c
#96929311
0c
#96929349
1c
#96929366
1d
#96929386
0c
#96929424
1c
#96929441
0d
#96929461
0c
#96929498
1c
#96929516
1d
#96929534
0c
#96929573
1c
#96929609
0c
#96929648
1c
#96929684
0c
#96929722
1c
#96929760
0c
#96929797
1c
#96929834
0c
#96929872
1c
#96929923
0c
#96929961
1c
#96930013
0c
#96930051
1c
#96930057
0c
#96930231
1c
#97256240
0d
#97256261
0c
#97256298
1c
#97256351
0c
#97256389
1c
#97256406
1d
#97256426
0c
#97256464
1c
#97256481
0d
#97256501
0c
#97256539
1c
#97256556
1d
#97256574
0c
#97256613
1c
#97256631
0d
#97256649
0c
#97256688
1c
#97256705
1d
#97256724
0c
#97256763
1c
#97256779
0d
#97256799
0c
#97256838
1c
#97256855
1d
#97256874
0c
#97256911
1c
#97256963
0c
#97257001
1c
#97257053
0c
#97257092
1c
#97257097
0c
#97257398
1c
#97259235
0d
#97259255
0c
#97259292
1c
#97259327
1d
#97259346
0c
#97259385
1c
#97259421
0c
#97259458
1c
#97259496
0c
#97259533
1c
#97259571
0c
#97259608
1c
#97259644
0c
#97259683
1c
#97259719
0c
#97259758
1c
#97259774
0d
#97259794
0c
#97259833
1c
#97259848
1d
#97259869
0c
#97259906
1c
#97259939
0d
#97259958
0c
#97259997
1c
#97260029
1d
#97260048
0c
#97260087
1c
#97260090
0c
#97260408
1c
#97262243
0d
#97262264
0c
#97262301
1c
#97262335
1d
#97262354
0c
#97262392
1c
#97262409
0d
#97262429
0c
#97262467
1c
#97262504
0c
#97262542
1c
#97262578
0c
#97262617
1c
#97262634
1d
#97262653
0c
#97262692
1c
#97262728
0c
#97262767
1c
#97262782
0d
#97262803
0c
#97262841
1c
#97262857
1d
#97262877
0c
#97262915
1c
#97262966
0c
#97263005
1c
#97263056
0c
#97263095
1c
#97263100
0c
#97263415
1c
#97401653
0c
#97401741
1c
#97402297
0c
#97402304
0d
#97402375
1c
#97408535
0c
#97408552
1d
#97408574
1c
#97408612
0c
#97408649
1c
#97408689
0c
#97408726
1c
#97408764
0c
#97408803
1c
#97408840
0c
#97408879
1c
#97408917
0c
#97408954
1c
#97408992
0c
#97409030
1c
#97409069
0c
#97409106
1c
#97409153
0c
#97409191
1c
#97409228
0c
#97409267
1c
#97409317
0d
#97409338
0c
#97409375
1c
#97409394
1d
#97409397
0c
#97409475
1c
#97409517
0d
#97409536
0c
#97409575
1c
#97409629
0c
#97409666
1c
#97409683
1d
#97409702
0c
#97409741
1c
#97409758
0d
#97409777
0c
#97409816
1c
#97409833
1d
#97409852
0c
#97409891
1c
#97409927
0c
#97409966
1c
#97410002
0c
#97410040
1c
#97410076
0c
#97410115
1c
#97410151
0c
#97410188
1c
#97410240
0c
#97410279
1c
#97410331
0c
#97410368
1c
#97410374
0c
#97410545
1c
#97736557
0d
#97736577
0c
#97736615
1c
#97736668
0c
#97736707
1c
#97736722
1d
#97736743
0c
#97736780
1c
#97736797
0d
#97736818
0c
#97736855
1c
#97736872
1d
#97736892
0c
#97736930
1c
#97736947
0d
#97736967
0c
#97737005
1c
#97737022
1d
#97737041
0c
#97737080
1c
#97737096
0d
#97737116
0c
#97737154
1c
#97737171
1d
#97737191
0c
#97737229
1c
#97737280
0c
#97737319
1c
#97737371
0c
#97737409
1c
#97737413
0c
#97737739
1c
#97739546
0d
#97739567
0c
#97739604
1c
#97739638
1d
#97739657
0c
#97739696
1c
#97739732
0c
#97739770
1c
#97739807
0c
#97739845
1c
#97739882
0c
#97739920
1c
#97739956
0c
#97739995
1c
#97740031
0c
#97740069
1c
#97740086
0d
#97740106
0c
#97740144
1c
#97740161
1d
#97740180
0c
#97740219
1c
#97740250
0d
#97740270
0c
#97740308
1c
#97740341
1d
#97740359
0c
#97740398
1c
#97740403
0c
#97740721
1c
#97742555
0d
#97742575
0c
#97742613
1c
#97742646
1d
#97742666
0c
#97742703
1c
#97742721
0d
#97742741
0c
#97742778
1c
#97742816
0c
#97742853
1c
#97742891
0c
#97742928
1c
#97742945
1d
#97742964
0c
#97743002
1c
#97743040
0c
#97743077
1c
#97743094
0d
#97743115
0c
#97743152
1c
#97743169
1d
#97743190
0c
#97743227
1c
#97743279
0c
#97743316
1c
#97743368
0c
#97743407
1c
#97743410
0c
#97743730
1c
#98419824
0c
#98419831
0d
#98419901
1c
#98422003
0c
#98422042
1c
#98422079
0c
#98422096
1d
#98422117
1c
#98422156
0c
#98422193
1c
#98422231
0c
#98422249
0d
#98422270
1c
#98422307
0c
#98422345
1c
#98422384
0c
#98422401
1d
#98422421
1c
#98422459
0c
#98422498
1c
#98422535
0c
#98422574
1c
#98422620
0c
#98422635
0d
#98422657
1c
#98422696
0c
#98422713
1d
#98422734
1c
#98422785
0d
#98422804
0c
#98422843
1c
#98422862
1d
#98422863
0c
#98422940
1c
#98422982
0d
#98423002
0c
#98423039
1c
#98423092
0c
#98423130
1c
#98423167
0c
#98423205
1c
#98423222
1d
#98423242
0c
#98423280
1c
#98423317
0c
#98423355
1c
#98423391
0c
#98423430
1c
#98423466
0c
#98423503
1c
#98423541
0c
#98423578
1c
#98423616
0c
#98423653
1c
#98423705
0c
#98423743
1c
#98423794
0c
#98423833
1c
#98423838
0c
#98424028
1c
#102109510
0c
#102109599
1c
#102112268
0c
#102112277
0d
#102112346
1c
#102114406
0c
#102114423
1d
#102114444
1c
#102114483
0c
#102114500
0d
#102114520
1c
#102114558
0c
#102114575
1d
#102114597
1c
#102114634
0c
#102114651
0d
#102114673
1c
#102114711
0c
#102114728
1d
#102114748
1c
#102114787
0c
#102114825
1c
#102114862
0c
#102114901
1c
#102114939
0c
#102114976
1c
#102115022
0c
#102115061
1c
#102115099
0c
#102115138
1c
#102115188
0d
#102115208
0c
#102115246
1c
#102115264
1d
#102115267
0c
#102115344
1c
#102115383
0d
#102115404
0c
#102115441
1c
#102115494
0c
#102115532
1c
#102115549
1d
#102115569
0c
#102115607
1c
#102115624
0d
#102115644
0c
#102115682
1c
#102115699
1d
#102115717
0c
#102115756
1c
#102115792
0c
#102115831
1c
#102115867
0c
#102115906
1c
#102115942
0c
#102115980
1c
#102116016
0c
#102116055
1c
#102116107
0c
#102116145
1c
#102116196
0c
#102116234
1c
#102116238
0c
#102116419
1c
#102117234
0c
#102117241
0d
#102117312
1c
#102117346
0c
#102117365
1d
#102117385
1c
#102117423
0c
#102117462
1c
#102117499
0c
#102117515
0d
#102117537
1c
#102117574
0c
#102117613
1c
#102117651
0c
#102117669
1d
#102117690
1c
#102117727
0c
#102117765
1c
#102117804
0c
#102117841
1c
#102117879
0c
#102117918
1c
#102117963
0c
#102118003
1c
#102118039
0c
#102118078
1c
#102118128
0d
#102118148
0c
#102118186
1c
#102118204
1d
#102118206
0c
#102118283
1c
#102118322
0d
#102118341
0c
#102118380
1c
#102118431
0c
#102118470
1c
#102118487
1d
#102118506
0c
#102118545
1c
#102118562
0d
#102118581
0c
#102118620
1c
#102118636
1d
#102118656
0c
#102118693
1c
#102118731
0c
#102118768
1c
#102118806
0c
#102118843
1c
#102118881
0c
#102118918
1c
#102118954
0c
#102118993
1c
#102119044
0c
#102119083
1c
#102119135
0c
#102119172
1c
#102119177
0c
#102119357
1c
#102120172
0c
#102120180
0d
#102120250
1c
#102120274
0c
#102120289
1d
#102120311
1c
#102120350
0c
#102120388
1c
#102120425
0c
#102120444
0d
#102120464
1c
#102120502
0c
#102120517
1d
#102120541
1c
#102120578
0c
#102120595
0d
#102120616
1c
#102120655
0c
#102120692
1c
#102120730
0c
#102120745
1d
#102120769
1c
#102120806
0c
#102120822
0d
#102120843
1c
#102120890
0c
#102120907
1d
#102120928
1c
#102120967
0c
#102121005
1c
#102121055
0d
#102121075
0c
#102121113
1c
#102121131
1d
#102121135
0c
#102121211
1c
#102121247
0d
#102121266
0c
#102121305
1c
#102121357
0c
#102121396
1c
#102121413
1d
#102121432
0c
#102121471
1c
#102121488
0d
#102121507
0c
#102121546
1c
#102121563
1d
#102121582
0c
#102121619
1c
#102121657
0c
#102121694
1c
#102121732
0c
#102121769
1c
#102121805
0c
#102121844
1c
#102121880
0c
#102121919
1c
#102121971
0c
#102122009
1c
#102122060
0c
#102122098
1c
#102122104
0c
#102122286
1c
#102123101
0c
#102123108
0d
#102123179
1c
#102123206
0c
#102123244
1c
#102123282
0c
#102123320
1c
#102123359
0c
#102123374
1d
#102123396
1c
#102123434
0c
#102123473
1c
#102123510
0c
#102123548
1c
#102123587
0c
#102123624
1c
#102123662
0c
#102123701
1c
#102123739
0c
#102123776
1c
#102123823
0c
#102123860
1c
#102123899
0c
#102123937
1c
#102123988
0d
#102124008
0c
#102124045
1c
#102124064
1d
#102124067
0c
#102124145
1c
#102124181
0d
#102124202
0c
#102124239
1c
#102124292
0c
#102124331
1c
#102124347
1d
#102124367
0c
#102124405
1c
#102124422
0d
#102124442
0c
#102124480
1c
#102124497
1d
#102124517
0c
#102124555
1c
#102124591
0c
#102124630
1c
#102124666
0c
#102124705
1c
#102124741
0c
#102124778
1c
#102124816
0c
#102124853
1c
#102124905
0c
#102124944
1c
#102124996
0c
#102125034
1c
#102125038
0c
#102125218
1c
#102126033
0c
#102126042
0d
#102126111
1c
#102126137
0c
#102126176
1c
#102126213
0c
#102126251
1c
#102126290
0c
#102126327
1c
#102126365
0c
#102126382
1d
#102126404
1c
#102126441
0c
#102126479
1c
#102126518
0c
#102126533
0d
#102126555
1c
#102126593
0c
#102126610
1d
#102126632
1c
#102126669
0c
#102126686
0d
#102126708
1c
#102126754
0c
#102126791
1c
#102126830
0c
#102126845
1d
#102126867
1c
#102126919
0d
#102126938
0c
#102126977
1c
#102126996
1d
#102127001
0c
#102127077
1c
#102128084
0d
#102128104
0c
#102128142
1c
#102128195
0c
#102128232
1c
#102128249
1d
#102128270
0c
#102128307
1c
#102128324
0d
#102128345
0c
#102128382
1c
#102128399
1d
#102128420
0c
#102128457
1c
#102128493
0c
#102128532
1c
#102128568
0c
#102128607
1c
#102128643
0c
#102128681
1c
#102128718
0c
#102128756
1c
#102128807
0c
#102128846
1c
#102128896
0c
#102128935
1c
#102128940
0c
#102129132
1c
#102134074
0c
#102134083
0d
#102134152
1c
#102134176
0c
#102134215
1c
#102134252
0c
#102134269
1d
#102134291
1c
#102134329
0c
#102134346
0d
#102134366
1c
#102134405
0c
#102134422
1d
#102134443
1c
#102134480
0c
#102134519
1c
#102134557
0c
#102134594
1c
#102134633
0c
#102134671
1c
#102134708
0c
#102134747
1c
#102134793
0c
#102134830
1c
#102134869
0c
#102134907
1c
#102134958
0d
#102134977
0c
#102135015
1c
#102135034
1d
#102135037
0c
#102135114
1c
#102136693
0d
#102136712
0c
#102136750
1c
#102136804
0c
#102136841
1c
#102136858
1d
#102136878
0c
#102136916
1c
#102136933
0d
#102136952
0c
#102136991
1c
#102137007
1d
#102137027
0c
#102137065
1c
#102137102
0c
#102137140
1c
#102137176
0c
#102137215
1c
#102137251
0c
#102137290
1c
#102137326
0c
#102137363
1c
#102137415
0c
#102137454
1c
#102137506
0c
#102137543
1c
#102137548
0c
#102137758
1c
#102138474
0c
#102138482
0d
#102138552
1c
#102138574
0c
#102138591
1d
#102138613
1c
#102138651
0c
#102138668
0d
#102138688
1c
#102138727
0c
#102138765
1c
#102138802
0c
#102138841
1c
#102138878
0c
#102138916
1c
#102138955
0c
#102138970
1d
#102138992
1c
#102139031
0c
#102139068
1c
#102139107
0c
#102139124
0d
#102139145
1c
#102139192
0c
#102139229
1c
#102139267
0c
#102139284
1d
#102139305
1c
#102139356
0d
#102139376
0c
#102139413
1c
#102139432
1d
#102139435
0c
#102139513
1c
#102140567
0d
#102140586
0c
#102140624
1c
#102140676
0c
#102140715
1c
#102140732
1d
#102140751
0c
#102140790
1c
#102140806
0d
#102140826
0c
#102140865
1c
#102140882
1d
#102140901
0c
#102140938
1c
#102140976
0c
#102141014
1c
#102141050
0c
#102141089
1c
#102141125
0c
#102141162
1c
#102141200
0c
#102141237
1c
#102141289
0c
#102141328
1c
#102141378
0c
#102141417
1c
#102141424
0c
#102141624
1c
#102142340
0c
#102142348
0d
#102142418
1c
#102142442
0c
#102142481
1c
#102142518
0c
#102142534
1d
#102142557
1c
#102142595
0c
#102142610
0d
#102142632
1c
#102142671
0c
#102142688
1d
#102142709
1c
#102142746
0c
#102142765
0d
#102142785
1c
#102142823
0c
#102142840
1d
#102142861
1c
#102142899
0c
#102142936
1c
#102142974
0c
#102142993
0d
#102143014
1c
#102143059
0c
#102143078
1d
#102143096
1c
#102143136
0c
#102143173
1c
#102143225
0d
#102143244
0c
#102143283
1c
#102143300
1d
#102143301
0c
#102143378
1c
#102144539
0d
#102144558
0c
#102144597
1c
#102144649
0c
#102144688
1c
#102144705
1d
#102144724
0c
#102144763
1c
#102144778
0d
#102144799
0c
#102144836
1c
#102144853
1d
#102144874
0c
#102144911
1c
#102144949
0c
#102144986
1c
#102145023
0c
#102145062
1c
#102145098
0c
#102145135
1c
#102145173
0c
#102145210
1c
#102145262
0c
#102145299
1c
#102145351
0c
#102145390
1c
#102145393
0c
#102145589
1c
#102146377
0c
#102146385
0d
#102146456
1c
#102146477
0c
#102146494
1d
#102146516
1c
#102146554
0c
#102146591
1c
#102146631
0c
#102146646
0d
#102146668
1c
#102146705
0c
#102146744
1c
#102146782
0c
#102146820
1c
#102146858
0c
#102146874
1d
#102146896
1c
#102146933
0c
#102146972
1c
#102147011
0c
#102147028
0d
#102147048
1c
#102147095
0c
#102147112
1d
#102147132
1c
#102147170
0c
#102147209
1c
#102147259
0d
#102147279
0c
#102147317
1c
#102147335
1d
#102147339
0c
#102147417
1c
#102148514
0d
#102148534
0c
#102148572
1c
#102148625
0c
#102148663
1c
#102148680
1d
#102148700
0c
#102148737
1c
#102148755
0d
#102148775
0c
#102148812
1c
#102148830
1d
#102148850
0c
#102148887
1c
#102148923
0c
#102148962
1c
#102148998
0c
#102149036
1c
#102149074
0c
#102149111
1c
#102149147
0c
#102149186
1c
#102149238
0c
#102149275
1c
#102149327
0c
#102149365
1c
#102149372
0c
#102149545
1c
#102150229
0c
#102150238
0d
#102150307
1c
#102150331
0c
#102150368
1c
#102150408
0c
#102150445
1c
#102150483
0c
#102150522
1c
#102150559
0c
#102150597
1c
#102150636
0c
#102150673
1c
#102150711
0c
#102150729
1d
#102150750
1c
#102150787
0c
#102150825
1c
#102150864
0c
#102150881
0d
#102150901
1c
#102150948
0c
#102150965
1d
#102150985
1c
#102151024
0c
#102151061
1c
#102151113
0d
#102151133
0c
#102151171
1c
#102151189
1d
#102151192
0c
#102151269
1c
#102152382
0d
#102152402
0c
#102152440
1c
#102152493
0c
#102152531
1c
#102152548
1d
#102152568
0c
#102152605
1c
#102152623
0d
#102152643
0c
#102152680
1c
#102152697
1d
#102152718
0c
#102152755
1c
#102152791
0c
#102152830
1c
#102152866
0c
#102152905
1c
#102152941
0c
#102152980
1c
#102153017
0c
#102153054
1c
#102153106
0c
#102153143
1c
#102153195
0c
#102153234
1c
#102153239
0c
#102153425
1c
#102154083
0c
#102154091
0d
#102154161
1c
#102154186
0c
#102154203
1d
#102154224
1c
#102154261
0c
#102154277
0d
#102154300
1c
#102154338
0c
#102154355
1d
#102154375
1c
#102154414
0c
#102154452
1c
#102154489
0c
#102154508
0d
#102154528
1c
#102154566
0c
#102154581
1d
#102154605
1c
#102154642
0c
#102154680
1c
#102154717
0c
#102154756
1c
#102154802
0c
#102154841
1c
#102154878
0c
#102154916
1c
#102154967
0d
#102154988
0c
#102155026
1c
#102155043
1d
#102155044
0c
#102155121
1c
#102156677
0d
#102156695
0c
#102156734
1c
#102156786
0c
#102156825
1c
#102156842
1d
#102156861
0c
#102156900
1c
#102156917
0d
#102156936
0c
#102156975
1c
#102156990
1d
#102157011
0c
#102157049
1c
#102157085
0c
#102157124
1c
#102157160
0c
#102157199
1c
#102157235
0c
#102157272
1c
#102157310
0c
#102157347
1c
#102157399
0c
#102157436
1c
#102157488
0c
#102157527
1c
#102157532
0c
#102157729
1c
#102158489
0c
#102158498
0d
#102158567
1c
#102158593
0c
#102158632
1c
#102158669
0c
#102158707
1c
#102158746
0c
#102158783
1c
#102158821
0c
#102158860
1c
#102158897
0c
#102158935
1c
#102158974
0c
#102159012
1c
#102159050
0c
#102159087
1c
#102159126
0c
#102159164
1c
#102159209
0c
#102159228
1d
#102159248
1c
#102159286
0c
#102159323
1c
#102159375
0d
#102159395
0c
#102159432
1c
#102159451
1d
#102159453
0c
#102159529
1c
#102159567
0d
#102159587
0c
#102159625
1c
#102159678
0c
#102159717
1c
#102159733
1d
#102159753
0c
#102159790
1c
#102159807
0d
#102159828
0c
#102159865
1c
#102159882
1d
#102159903
0c
#102159940
1c
#102159978
0c
#102160016
1c
#102160052
0c
#102160089
1c
#102160127
0c
#102160164
1c
#102160202
0c
#102160239
1c
#102160291
0c
#102160328
1c
#102160380
0c
#102160419
1c
#102160424
0c
#102160602
1c
#102161419
0c
#102161427
0d
#102161497
1c
#102161521
0c
#102161560
1c
#102161597
0c
#102161635
1c
#102161674
0c
#102161689
1d
#102161711
1c
#102161749
0c
#102161767
0d
#102161788
1c
#102161825
0c
#102161844
1d
#102161864
1c
#102161902
0c
#102161939
1c
#102161978
0c
#102162016
1c
#102162054
0c
#102162091
1c
#102162138
0c
#102162155
0d
#102162176
1c
#102162215
0c
#102162230
1d
#102162252
1c
#102162302
0d
#102162323
0c
#102162360
1c
#102162379
1d
#102162380
0c
#102162457
1c
#102162496
0d
#102162515
0c
#102162554
1c
#102162607
0c
#102162645
1c
#102162662
1d
#102162682
0c
#102162719
1c
#102162737
0d
#102162755
0c
#102162794
1c
#102162811
1d
#102162830
0c
#102162869
1c
#102162905
0c
#102162944
1c
#102162980
0c
#102163018
1c
#102163054
0c
#102163093
1c
#102163129
0c
#102163167
1c
#102163218
0c
#102163257
1c
#102163309
0c
#102163347
1c
#102163351
0c
#102163532
1c
#207795312
0d
#207795331
0c
#207795370
1c
#207795422
0c
#207795461
1c
#207795497
0c
#207795536
1c
#207795551
1d
#207795572
0c
#207795609
1c
#207795626
0d
#207795647
0c
#207795684
1c
#207795701
1d
#207795721
0c
#207795759
1c
#207795776
0d
#207795796
0c
#207795834
1c
#207795870
0c
#207795909
1c
#207795945
0c
#207795982
1c
#207796016
1d
#207796035
0c
#207796073
1c
#207796125
0c
#207796162
1c
#207796167
0c
#207796558
1c
#207797614
0c
#207797622
0d
#207797692
1c
#207803178
0c
#207803197
1d
#207803217
1c
#207803255
0c
#207803270
0d
#207803294
1c
#207803331
0c
#207803348
1d
#207803368
1c
#207803408
0c
#207803445
1c
#207803483
0c
#207803498
0d
#207803522
1c
#207803559
0c
#207803576
1d
#207803596
1c
#207803636
0c
#207803673
1c
#207803711
0c
#207803750
1c
#207803795
0c
#207803833
1c
#207803872
0c
#207803909
1c
#207803961
0d
#207803980
0c
#207804018
1c
#207804036
1d
#207804043
0c
#207804121
1c
#207804160
0d
#207804180
0c
#207804218
1c
#207804271
0c
#207804308
1c
#207804325
1d
#207804346
0c
#207804383
1c
#207804400
0d
#207804421
0c
#207804458
1c
#207804475
1d
#207804494
0c
#207804533
1c
#207804569
0c
#207804608
1c
#207804644
0c
#207804682
1c
#207804719
0c
#207804757
1c
#207804794
0c
#207804832
1c
#207804883
0c
#207804921
1c
#207804973
0c
#207805011
1c
#207805015
0c
#207805195
1c
#207806209
0c
#207806219
0d
#207806288
1c
#207806313
0c
#207806352
1c
#207806389
0c
#207806405
1d
#207806428
1c
#207806466
0c
#207806481
0d
#207806503
1c
#207806541
0c
#207806580
1c
#207806617
0c
#207806656
1c
#207806694
0c
#207806731
1c
#207806769
0c
#207806808
1c
#207806846
0c
#207806883
1c
#207806930
0c
#207806967
1c
#207807006
0c
#207807023
1d
#207807045
1c
#207807094
0d
#207807115
0c
#207807152
1c
#207807171
1d
#207807172
0c
#207807249
1c
#207807288
0d
#207807307
0c
#207807346
1c
#207807398
0c
#207807437
1c
#207807454
1d
#207807473
0c
#207807512
1c
#207807529
0d
#207807548
0c
#207807587
1c
#207807602
1d
#207807623
0c
#207807660
1c
#207807698
0c
#207807735
1c
#207807773
0c
#207807810
1c
#207807846
0c
#207807885
1c
#207807921
0c
#207807960
1c
#207808011
0c
#207808048
1c
#207808100
0c
#207808139
1c
#207808144
0c
#207808324
1c
#207996243
0d
#207996263
0c
#207996301
1c
#207996354
0c
#207996393
1c
#207996429
0c
#207996466
1c
#207996504
0c
#207996541
1c
#207996579
0c
#207996617
1c
#207996634
1d
#207996652
0c
#207996691
1c
#207996727
0c
#207996766
1c
#207996803
0c
#207996840
1c
#207996878
0c
#207996915
1c
#207996967
0c
#207997005
1c
#207997056
0c
#207997095
1c
#207997100
0c
#207997415
1c
#208004113
0d
#208004133
0c
#208004170
1c
#208004224
0c
#208004261
1c
#208004299
0c
#208004336
1c
#208004353
1d
#208004372
0c
#208004411
1c
#208004428
0d
#208004447
0c
#208004486
1c
#208004503
1d
#208004522
0c
#208004561
1c
#208004576
0d
#208004597
0c
#208004634
1c
#208004672
0c
#208004709
1c
#208004747
0c
#208004784
1c
#208004816
1d
#208004836
0c
#208004873
1c
#208004925
0c
#208004964
1c
#208004969
0c
#208005225
1c
#208006256
0c
#208006265
0d
#208006334
1c
#208011919
0c
#208011937
1d
#208011957
1c
#208011995
0c
#208012011
0d
#208012033
1c
#208012070
0c
#208012087
1d
#208012109
1c
#208012147
0c
#208012184
1c
#208012223
0c
#208012239
0d
#208012261
1c
#208012298
0c
#208012315
1d
#208012337
1c
#208012375
0c
#208012414
1c
#208012451
0c
#208012489
1c
#208012536
0c
#208012573
1c
#208012611
0c
#208012650
1c
#208012700
0d
#208012720
0c
#208012758
1c
#208012776
1d
#208012780
0c
#208012858
1c
#208012900
0d
#208012919
0c
#208012958
1c
#208013010
0c
#208013049
1c
#208013068
1d
#208013085
0c
#208013124
1c
#208013141
0d
#208013160
0c
#208013199
1c
#208013214
1d
#208013235
0c
#208013272
1c
#208013310
0c
#208013347
1c
#208013385
0c
#208013422
1c
#208013458
0c
#208013497
1c
#208013533
0c
#208013572
1c
#208013623
0c
#208013662
1c
#208013713
0c
#208013751
1c
#208013757
0c
#208013932
1c
#208014747
0c
#208014755
0d
#208014825
1c
#208014849
0c
#208014888
1c
#208014926
0c
#208014943
1d
#208014964
1c
#208015003
0c
#208015018
0d
#208015040
1c
#208015077
0c
#208015116
1c
#208015154
0c
#208015191
1c
#208015231
0c
#208015268
1c
#208015306
0c
#208015345
1c
#208015382
0c
#208015420
1c
#208015467
0c
#208015504
1c
#208015542
0c
#208015559
1d
#208015581
1c
#208015631
0d
#208015651
0c
#208015689
1c
#208015707
1d
#208015709
0c
#208015785
1c
#208015825
0d
#208015843
0c
#208015882
1c
#208015934
0c
#208015973
1c
#208015990
1d
#208016010
0c
#208016047
1c
#208016064
0d
#208016084
0c
#208016122
1c
#208016139
1d
#208016159
0c
#208016197
1c
#208016234
0c
#208016272
1c
#208016308
0c
#208016347
1c
#208016383
0c
#208016422
1c
#208016458
0c
#208016495
1c
#208016547
0c
#208016586
1c
#208016638
0c
#208016675
1c
#208016680
0c
#208016860
1c
#209609463
0d
#209609484
0c
#209609521
1c
#209609574
0c
#209609612
1c
#209609649
0c
#209609687
1c
#209609704
1d
#209609724
0c
#209609762
1c
#209609779
0d
#209609799
0c
#209609837
1c
#209609854
1d
#209609873
0c
#209609912
1c
#209609929
0d
#209609948
0c
#209609987
1c
#209610023
0c
#209610061
1c
#209610098
0c
#209610135
1c
#209610167
1d
#209610187
0c
#209610225
1c
#209610276
0c
#209610315
1c
#209610321
0c
#209610721
1c
#209611667
0c
#209611674
0d
#209611754
1c
#209617331
0c
#209617348
1d
#209617370
1c
#209617407
0c
#209617424
0d
#209617444
1c
#209617484
0c
#209617501
1d
#209617521
1c
#209617559
0c
#209617598
1c
#209617635
0c
#209617652
0d
#209617673
1c
#209617712
0c
#209617729
1d
#209617749
1c
#209617787
0c
#209617826
1c
#209617863
0c
#209617901
1c
#209617948
0c
#209617985
1c
#209618023
0c
#209618061
1c
#209618112
0d
#209618133
0c
#209618170
1c
#209618189
1d
#209618193
0c
#209618272
1c
#209618312
0d
#209618331
0c
#209618370
1c
#209618423
0c
#209618461
1c
#209618478
1d
#209618497
0c
#209618536
1c
#209618553
0d
#209618572
0c
#209618611
1c
#209618628
1d
#209618647
0c
#209618686
1c
#209618722
0c
#209618759
1c
#209618797
0c
#209618834
1c
#209618872
0c
#209618909
1c
#209618945
0c
#209618984
1c
#209619035
0c
#209619074
1c
#209619126
0c
#209619163
1c
#209619169
0c
#209619345
1c
#209620161
0c
#209620169
0d
#209620239
1c
#209620261
0c
#209620300
1c
#209620338
0c
#209620375
1c
#209620414
0c
#209620452
1c
#209620489
0c
#209620528
1c
#209620566
0c
#209620603
1c
#209620643
0c
#209620680
1c
#209620718
0c
#209620757
1c
#209620794
0c
#209620832
1c
#209620879
0c
#209620896
1d
#209620916
1c
#209620954
0c
#209620993
1c
#209621043
0d
#209621064
0c
#209621101
1c
#209621120
1d
#209621123
0c
#209621199
1c
#209621237
0d
#209621256
0c
#209621295
1c
#209621346
0c
#209621385
1c
#209621403
1d
#209621421
0c
#209621460
1c
#209621476
0d
#209621496
0c
#209621534
1c
#209621551
1d
#209621571
0c
#209621609
1c
#209621646
0c
#209621684
1c
#209621720
0c
#209621759
1c
#209621795
0c
#209621834
1c
#209621870
0c
#209621907
1c
#209621959
0c
#209621998
1c
#209622049
0c
#209622087
1c
#209622092
0c
#209622294
1c
#209824097
0d
#209824116
0c
#209824155
1c
#209824207
0c
#209824246
1c
#209824282
0c
#209824321
1c
#209824357
0c
#209824394
1c
#209824432
0c
#209824469
1c
#209824486
1d
#209824507
0c
#209824544
1c
#209824580
0c
#209824619
1c
#209824655
0c
#209824694
1c
#209824730
0c
#209824768
1c
#209824819
0c
#209824858
1c
#209824910
0c
#209824948
1c
#209824954
0c
#209825258
1c
#209831968
0d
#209831989
0c
#209832027
1c
#209832080
0c
#209832117
1c
#209832155
0c
#209832192
1c
#209832209
1d
#209832228
0c
#209832267
1c
#209832284
0d
#209832303
0c
#209832342
1c
#209832359
1d
#209832378
0c
#209832415
1c
#209832432
0d
#209832453
0c
#209832490
1c
#209832528
0c
#209832565
1c
#209832603
0c
#209832640
1c
#209832672
1d
#209832692
0c
#209832729
1c
#209832781
0c
#209832820
1c
#209832825
0c
#209833096
1c
#209833997
0c
#209834007
0d
#209834076
1c
#209839775
0c
#209839790
1d
#209839813
1c
#209839851
0c
#209839866
0d
#209839888
1c
#209839926
0c
#209839944
1d
#209839965
1c
#209840003
0c
#209840040
1c
#209840079
0c
#209840095
0d
#209840117
1c
#209840154
0c
#209840171
1d
#209840193
1c
#209840231
0c
#209840268
1c
#209840307
0c
#209840345
1c
#209840392
0c
#209840429
1c
#209840467
0c
#209840506
1c
#209840556
0d
#209840576
0c
#209840614
1c
#209840633
1d
#209840636
0c
#209840714
1c
#209840756
0d
#209840775
0c
#209840814
1c
#209840867
0c
#209840905
1c
#209840922
1d
#209840941
0c
#209840980
1c
#209840997
0d
#209841016
0c
#209841054
1c
#209841072
1d
#209841091
0c
#209841128
1c
#209841166
0c
#209841203
1c
#209841239
0c
#209841278
1c
#209841314
0c
#209841353
1c
#209841389
0c
#209841427
1c
#209841479
0c
#209841518
1c
#209841569
0c
#209841607
1c
#209841613
0c
#209841789
1c
#209842603
0c
#209842611
0d
#209842682
1c
#209842705
0c
#209842744
1c
#209842782
0c
#209842819
1c
#209842858
0c
#209842896
1c
#209842933
0c
#209842972
1c
#209843009
0c
#209843048
1c
#209843085
0c
#209843124
1c
#209843162
0c
#209843199
1c
#209843239
0c
#209843276
1c
#209843321
0c
#209843338
1d
#209843360
1c
#209843398
0c
#209843437
1c
#209843487
0d
#209843507
0c
#209843545
1c
#209843564
1d
#209843565
0c
#209843642
1c
#209843679
0d
#209843700
0c
#209843737
1c
#209843790
0c
#209843829
1c
#209843845
1d
#209843865
0c
#209843903
1c
#209843920
0d
#209843940
0c
#209843978
1c
#209843995
1d
#209844014
0c
#209844053
1c
#209844089
0c
#209844128
1c
#209844164
0c
#209844202
1c
#209844239
0c
#209844277
1c
#209844314
0c
#209844352
1c
#209844403
0c
#209844441
1c
#209844493
0c
#209844532
1c
#209844536
0c
#209844716
1c
#213625241
0d
#213625260
0c
#213625299
1c
#213625353
0c
#213625390
1c
#213625426
0c
#213625465
1c
#213625482
1d
#213625501
0c
#213625540
1c
#213625557
0d
#213625576
0c
#213625615
1c
#213625630
1d
#213625651
0c
#213625688
1c
#213625705
0d
#213625726
0c
#213625763
1c
#213625801
0c
#213625838
1c
#213625874
0c
#213625913
1c
#213625944
1d
#213625965
0c
#213626003
1c
#213626055
0c
#213626092
1c
#213626097
0c
#213626507
1c
#213627621
0c
#213627628
0d
#213627699
1c
#213633108
0c
#213633125
1d
#213633147
1c
#213633184
0c
#213633201
0d
#213633223
1c
