dumps/ps2.vcd
$version Generated by PS2Sniffer $end
$date Mon Nov 7 21:25:00 2022 $end
$timescale 1us $end
$scope module TOP $end
$var wire 1 c clk $end
$var wire 1 d data $end
$upscope $end
$enddefinitions $end
#50802960
1c
1d
#58215910
1d
#58216481
0c
#58245711
1d
#58245799
1c
#58723249
1d
#58723349
1c
#58723439
0d
#58723525
0c
#58723611
0d
#58723724
1d
#58723813
0c
#58723919
1c
#58724060
0c
#58726247
1d
#58726347
1c
#58726468
1c
#58726580
0c
#58726692
1c
#58726785
1d
#58726897
0c
#58726983
0d
#58727069
0c
#58729250
1d
#58729350
1c
#58729440
0d
#58729526
0c
#58729634
1c
#58729725
1d
#58729816
0c
#58729923
1d
#58729011
1c
#66996301
0c
#67047218
0c
#67065002
1c
#67420201
0c
#67507208
1c
#68644254
0c
#68731261
1c
#69844397
0c
#69844492
1c
#69880170
0c
#69880264
1d
#69885019
0c
#69885113
0d
#69885199
0c
#69885321
0c
#69885435
1c
#69885571
0c
#69885672
1c
#69885799
1d
#69885912
0c
#69885999
1d
#69886106
1c
#69886196
0d
#69886282
0c
#69886367
0d
#69886481
0c
#69886595
1c
#69886729
0c
#69886849
1c
#69887026
1c
#70213055
1d
#70213155
1c
#70213245
0d
#70213331
0c
#70213416
0d
#70213502
1c
#70213621
0d
#70213705
0c
#70213814
1c
#70213931
0c
#70214220
1c
#70216047
1d
#70216147
1c
#70216268
1c
#70216380
0c
#70216492
1c
#70216598
1d
#70216690
0c
#70216776
0d
#70216883
0c
#70217211
1c
#70219058
1d
#70219158
1c
#70219248
0d
#70219334
0c
#70219429
1c
#70219547
0d
#70219631
0c
#70219728
1c
#70219869
0c
#70220219
1c
#70220879
0c
#70220964
1d
#70226869
0c
#70226963
0d
#70227049
0c
#70227135
1d
#70227225
1c
#70227323
0c
#70227438
1c
#70227560
0c
#70227667
0d
#70227762
0c
#70227848
1d
#70227938
1c
#70228051
0d
#70228134
0c
#70228254
0c
#70228366
1c
#70228478
0c
#70228567
0c
#70228657
0c
#70228872
1c
#70242274
0c
#70242369
1d
#70242460
0c
#70242552
0d
#70242638
0c
#70242752
1d
#70242840
0c
#70242953
1c
#70243065
1d
#70243156
1c
#70243262
0d
#70243348
1c
#70243454
1d
#70243544
1c
#70243635
0d
#70243742
1c
#70243848
0c
#70243961
1c
#70244087
0c
#70244177
0c
#70244395
1c
#135958465
0c
#136045472
1c
#136180249
0c
#136180892
0c
#136180985
1d
#136183987
0c
#136184090
0d
#136184183
1c
#136184289
0c
#136184405
1c
#136184517
0c
#136184640
1c
#136184767
1d
#136184865
0c
#136184975
1d
#136185083
0c
#136185186
0d
#136185289
1d
#136185385
0c
#136185495
1c
#136185603
0c
#136185728
1c
#136185995
1c
#136512013
1d
#136512121
0c
#136512213
0d
#136512307
1c
#136512404
1d
#136512503
0c
#136512625
1d
#136512721
1c
#136512823
0c
#136513189
1c
#136514002
1d
#136515111
0c
#136515223
1c
#136515335
0c
#136515451
1c
#136515548
1d
#136515648
0c
#136515741
0d
#136515864
0c
#136516174
1c
#136518011
1d
#136518118
0c
#136518211
0d
#136518305
1c
#136518402
1d
#136518530
1c
#136518628
1d
#136518727
1c
#136518859
1c
#136519178
1c
#136657417
0c
#136658058
0c
#136658151
1d
#136664304
0c
#136664407
0d
#136664500
1c
#136664607
0c
#136664721
1c
#136664848
0c
#136664957
1c
#136665085
1d
#136665206
0c
#136665309
0d
#136665400
0c
#136665516
1c
#136665614
1d
#136665729
0c
#136665843
0c
#136665955
1c
#136666097
0c
#136666312
1c
#136992330
1d
#136992438
0c
#136992531
0d
#136992624
1c
#136992723
1d
#136992851
1c
#136992948
1d
#136993047
1c
#136993179
1c
#136993506
1c
#136995320
1d
#136995428
0c
#136995541
1c
#136995652
0c
#136995779
1c
#136995877
0d
#136995970
0c
#136996087
1d
#136996182
0c
#136996489
1c
#136998328
1d
#136998436
0c
#136998529
0d
#136998622
1c
#136998743
0d
#136998834
0c
#136998944
1d
#136999042
1c
#136999177
1c
#136999497
1c
#137675591
0c
#137675694
1d
#137677784
0c
#137677886
0d
#137677980
1c
#137678078
1d
#137678199
1d
#137678294
1c
#137678414
0c
#137678507
0d
#137678600
0c
#137678694
0d
#137678817
1c
#137678946
0c
#137679039
0d
#137679156
1c
#137679283
1c
#137679394
0c
#137679522
1c
#137679811
1c
#141377897
0c
#141380654
0c
#141380757
1d
#141384081
0c
#141384184
0d
#141384277
1c
#141384375
1d
#141384473
0c
#141384595
1c
#141384696
0c
#141384810
1c
#141384908
0d
#141385031
1c
#141385139
1d
#141385247
0c
#141385340
0d
#141385433
1c
#141385554
0c
#141385653
1c
#141385780
0c
#141385916
0c
#141386094
1c
#141386911
0c
#141387014
1d
#141387112
0c
#141387221
1d
#141387317
1c
#141387438
1c
#141387552
0c
#141387675
1c
#141387802
1d
#141387900
0c
#141388010
1d
#141388108
0c
#141388217
1d
#141388313
1c
#141388442
1c
#141388553
0c
#141388666
1c
#141388807
0c
#141389033
1c
#141389849
0c
#141389942
1d
#141390057
0c
#141390150
1d
#141390248
1c
#141390369
1d
#141390464
1c
#141390579
0c
#141390673
0d
#141390766
0c
#141390882
0d
#141390975
0c
#141391086
1c
#141391183
0d
#141391276
0c
#141391393
1c
#141391520
1c
#141391646
0c
#141391774
1c
#141391961
1c
#141392778
0c
#141392880
0d
#141392974
0c
#141393084
1d
#141393179
1c
#141393305
1c
#141393414
0c
#141393543
1c
#141393664
1d
#141393762
0c
#141393878
0d
#141393969
0c
#141394081
1c
#141394179
1d
#141394277
0c
#141394393
1c
#141394491
0c
#141394619
1c
#141394894
1c
#141398690
0c
#141398793
0d
#141398884
0c
#141398981
1c
#141399102
0d
#141399193
0c
#141399323
0c
#141399416
0d
#141399509
0c
#141399625
0d
#141399719
0c
#141400740
1d
#141400847
0c
#141400940
0d
#141401051
1c
#141401148
0d
#141401242
0c
#141401371
0c
#141401499
1c
#141401781
1c
#141402543
0c
#141402646
0d
#141402737
0c
#141402846
1c
#141402944
1d
#141403059
0c
#141403176
0c
#141403298
1c
#141403426
1d
#141403534
0c
#141405162
1d
#141405270
0c
#141405363
0d
#141405456
1c
#141405577
0d
#141405668
0c
#141405793
0c
#141405921
1c
#141406226
1c
#141406943
0c
#141407046
0d
#141407137
0c
#141407246
1c
#141407348
0c
#141407458
0d
#141407551
1c
#141407650
1d
#141407771
0d
#141407862
0c
#141407985
1c
#141409038
1d
#141409146
0c
#141409239
0d
#141409332
1c
#141409453
0d
#141409544
0c
#141409670
0c
#141409797
1c
#141410097
1c
#141410814
0c
#141410916
0d
#141410007
0c
#141411117
1c
#141411225
0d
#141411316
0c
#141411426
1c
#141411533
0d
#141411624
0c
#141411755
1c
#141411852
0d
#141411962
1c
#141413014
1d
#141413122
0c
#141413215
0d
#141413324
1c
#141413422
0d
#141413515
0c
#141413631
1c
#141413735
0c
#141413863
1c
#141414067
1c
#141414857
0c
#141414959
0d
#141414050
0c
#141415160
1c
#141415268
0c
#141415361
0d
#141415471
1c
#141415579
0d
#141415670
0c
#141415795
1c
#141415903
1d
#141415999
1c
#141416995
1d
#141417103
0c
#141417196
0d
#141417289
1c
#141417410
0d
#141417501
0c
#141417626
0c
#141417754
1c
#141418026
1c
#141418709
0c
#141418812
0d
#141418903
0c
#141419013
1c
#141419121
0c
#141419214
0d
#141419324
1c
#141419431
0d
#141419522
0c
#141419649
1c
#141419757
1d
#141419852
1c
#141420863
1d
#141420971
0c
#141421074
0d
#141421168
1c
#141421282
0d
#141421373
0c
#141421494
0c
#141421622
1c
#141421903
1c
#141422562
0c
#141422665
0d
#141422756
0c
#141422851
1c
#141422972
0c
#141423066
0d
#141423159
1c
#141423280
0c
#141423397
1c
#141423495
0d
#141423588
0c
#141425154
1d
#141425262
0c
#141425354
0d
#141425464
1c
#141425562
0d
#141425657
0c
#141425785
0c
#141425913
1c
#141426180
1c
#141426969
0c
#141427073
0d
#141427164
0c
#141427273
1c
#141427373
0c
#141427487
1c
#141427601
0c
#141427711
0d
#141427804
1c
#141427902
0d
#141428018
1c
#141428116
1d
#141428231
0c
#141428324
0d
#141428434
1c
#141428565
1c
#141428683
0c
#141428805
1c
#141429081
1c
#141429898
0c
#141429000
0d
#141429091
0c
#141430187
1c
#141430308
0d
#141430399
0c
#141430529
0c
#141430632
0d
#141430736
1c
#141430834
0d
#141430944
1c
#141431052
1d
#141431160
0c
#141431263
0d
#141431367
1c
#141431494
1c
#141431605
0c
#141431733
1c
#141432009
1c
#352099417
1d
#352099525
0c
#352099619
0d
#352099713
1c
#352099810
1d
#352099938
1c
#352100036
1d
#352100151
0c
#352100266
1c
#352100674
1c
#352197917
1d
#352198026
0c
#352198138
1c
#352198250
0c
#352198366
1d
#352198462
1c
#352198587
1c
#352198728
0c
#352199089
1c
#352205786
1d
#352205894
0c
#352205987
0d
#352206081
1c
#352206202
0d
#352206293
0c
#352206402
1d
#352206500
1c
#352206635
1c
#352206897
1c
#358403683
1d
#358403791
0c
#358403904
1c
#358403002
1d
#358404101
0c
#358404194
0d
#358404316
0c
#358404409
0d
#358404503
0c
#358404947
1c
#358405834
0c
#358405937
1d
#358411550
0c
#358411652
0d
#358411746
1c
#358411852
0c
#358411945
0d
#358412068
1c
#358412203
1c
#358412330
1d
#358412451
0c
#358412554
0d
#358412649
0c
#358412742
0d
#358412858
0d
#358412949
0c
#358413045
1c
#358413166
0c
#358413284
1c
#358413559
1c
#358414375
0c
#358414478
0d
#358414569
0c
#358414679
1c
#358414779
0c
#358414906
1c
#358415007
0c
#358415129
1c
#358415227
1d
#358415325
1c
#358415423
1d
#358415551
1c
#358415650
0d
#358415743
0c
#358415859
0d
#358415950
0c
#358416060
1c
#358416172
0c
#358416300
1c
#358416487
1c
#358541790
1d
#358541898
0c
#358542012
1c
#358542126
0c
#358542219
0d
#358542312
1c
#358542433
0c
#358542549
1c
#358542966
1c
#358549662
1d
#358549770
0c
#358549883
1c
#358549981
1d
#358550080
0c
#358550202
1d
#358550298
0c
#358550421
1c
#358550795
1c
#358551700
0c
#358551802
1d
#358557467
0c
#358557570
0d
#358557665
1c
#358557770
0c
#358557863
0d
#358557986
1c
#358558120
1c
#358558248
1d
#358558369
0c
#358558472
0d
#358558565
0c
#358558675
1d
#358558771
1c
#358558888
1c
#358559009
0c
#358559112
1c
#358559253
0c
#358559477
1c
#358560294
0c
#358560397
0d
#358560488
0c
#358560585
1c
#358560706
0c
#358560814
1c
#358560928
0c
#358561050
1c
#358561164
1d
#358561262
0c
#358561370
1d
#358561491
0c
#358561586
0d
#358561679
1c
#358561800
0d
#358561891
1c
#358561005
0c
#358562131
1c
#358562427
1c
#368532736
1d
#368532844
0c
#368532958
1c
#368533056
1d
#368533154
0c
#368533276
1d
#368533372
0c
#368533495
1c
#368533000
1c
#368631236
1d
#368631344
0c
#368631457
1c
#368631569
0c
#368631663
0d
#368631786
1c
#368631906
1c
#368632047
0c
#368632422
1c
#368639105
1d
#368639213
0c
#368639326
1c
#368639424
1d
#368639522
0c
#368639645
1d
#368639741
0c
#368639864
1c
#368640252
1c
#368903339
1d
#368903447
0c
#368903560
1c
#368903659
1d
#368903757
0c
#368903880
1d
#368903975
0c
#368904098
1c
#368904589
1c
#368987918
1d
#368988026
0c
#368988139
1c
#368988250
0c
#368988366
1d
#368988462
1c
#368988587
1c
#368988728
0c
#368989080
1c
#368995789
1d
#368995897
0c
#368996011
1c
#368996108
1d
#368996229
0c
#368996327
1d
#368996441
0c
#368996534
0d
#368996629
0c
#368996917
1c
#369218480
1d
#369218589
0c
#369218702
1c
#369218799
1d
#369218898
0c
#369219020
1d
#369219116
0c
#369219239
1c
#369219727
1c
#369303057
1d
#369303164
0c
#369303278
1c
#369303389
0c
#369303505
1d
#369303601
1c
#369303726
1c
#369303867
0c
#369304217
1c
#369310926
1d
#369311034
0c
#369311147
1c
#369311245
1d
#369311359
0c
#369311463
1d
#369311561
0c
#369311677
0d
#369311771
0c
#369312054
1c
#369609778
1d
#369609886
0c
#369609999
1c
#369610097
1d
#369610218
0c
#369610311
1d
#369610426
0c
#369610537
1c
#369610651
0d
#369611048
1c
#369687414
1d
#369687522
0c
#369687635
1c
#369687750
0c
#369687853
0d
#369687946
1c
#369688045
0c
#369688173
1c
#369688569
1c
#369695286
1d
#369695394
0c
#369695507
1c
#369695621
0d
#369695712
0c
#369695806
1c
#369695926
0d
#369695017
0c
#369696134
1c
#369696406
1c
#370437257
1d
#370437365
0c
#370437479
1c
#370437576
1d
#370437676
0c
#370437798
1d
#370437894
0c
#370438021
1c
#370438129
0d
#370438509
1c
#370556623
1d
#370556731
0c
#370556845
1c
#370556956
0c
#370557049
0d
#370557172
1c
#370557293
1c
#370557434
0c
#370557788
1c
#370564492
1d
#370564601
0c
#370564714
1c
#370564811
1d
#370564933
0c
#370565026
1d
#370565124
0c
#370565252
1c
#370565349
0d
#370565617
1c
#370807955
1d
#370808063
0c
#370808176
1c
#370808290
0d
#370808381
0c
#370808491
1c
#370808590
0d
#370808700
0c
#370808808
0c
#370809238
1c
#370906457
1d
#370906565
0c
#370906678
1c
#370906793
0c
#370906886
0d
#370906996
1c
#370907127
1c
#370907268
0c
#370907624
1c
#370914329
1d
#370914437
0c
#370914550
1c
#370914665
0d
#370914756
0c
#370914865
1c
#370914973
0d
#370915077
0c
#370915180
1c
#370915460
1c
#371130096
1d
#371130204
0c
#371130297
0d
#371130390
1c
#371130503
0c
#371130598
0d
#371130720
1c
#371130818
0d
#371130912
0c
#371131347
1c
#371256424
1d
#371256532
0c
#371256645
1c
#371256760
0c
#371256853
0d
#371256946
1c
#371257067
0c
#371257183
1c
#371257612
1c
#371264293
1d
#371264401
0c
#371264494
0d
#371264589
1c
#371264700
0c
#371264823
1d
#371264919
1c
#371265052
1c
#371265441
1c
#371466194
1d
#371466302
0c
#371466395
0d
#371466488
1c
#371466587
1d
#371466685
0c
#371466808
1d
#371466904
1c
#371467026
0c
#371467442
1c
#371550792
1d
#371550900
0c
#371551013
1c
#371551124
0c
#371551240
1d
#371551336
1c
#371551461
1c
#371551602
0c
#371551961
1c
#371558663
1d
#371558771
0c
#371558864
0d
#371558958
1c
#371559056
1d
#371559184
1c
#371559281
1d
#371559379
1c
#371559477
0d
#371559601
0c
#371559798
1c
#371836724
1d
#371836832
0c
#371836925
0d
#371837019
1c
#371837116
1d
#371837244
1c
#371837342
1d
#371837440
1c
#371837538
0d
#371837661
0c
#371837982
1c
#371928315
1d
#371928423
0c
#371928536
1c
#371928648
0c
#371928740
0d
#371928863
1c
#371928984
1c
#371929126
0c
#371929481
1c
#371936184
1d
#371936292
0c
#371936385
0d
#371936478
1c
#371936576
1d
#371936675
0c
#371936798
1d
#371936894
1c
#371936995
0c
#371937320
1c
#373515928
1d
#373516037
0c
#373516130
0d
#373516223
1c
#373516321
1d
#373516419
0c
#373516541
1d
#373516637
1c
#373516739
0c
#373517169
1c
#373628335
1d
#373628443
0c
#373628556
1c
#373628668
0c
#373628761
0d
#373628883
1c
#373628005
1c
#373629146
0c
#373629513
1c
#373636207
1d
#373636315
0c
#373636408
0d
#373636501
1c
#373636600
1d
#373636728
1c
#373636825
1d
#373636940
0c
#373637044
0d
#373637137
0c
#373637342
1c
#374398950
1d
#374399058
0c
#374399151
0d
#374399244
1c
#374399342
1d
#374399470
1c
#374399567
1d
#374399682
0c
#374399798
1c
#374400207
1c
#374490487
1d
#374490596
0c
#374490709
1c
#374490820
0c
#374490913
0d
#374491036
1c
#374491157
1c
#374491298
0c
#374491673
1c
#374498356
1d
#374498464
0c
#374498557
0d
#374498652
1c
#374498773
0d
#374498864
0c
#374498969
1d
#374499067
1c
#374499195
0c
#374499483
1c
#375974244
1d
#375974352
0c
#375974465
1c
#375974563
1d
#375974684
0c
#375974777
1d
#375974892
0c
#375974985
0d
#375975079
0c
#375975516
1c
#375976572
0c
#375976675
1d
#375982111
0c
#375982213
0d
#375982307
1c
#375982424
0c
#375982517
0d
#375982612
1c
#375982733
0c
#375982840
1c
#375982954
1d
#375982050
1c
#375983194
0c
#375983287
0d
#375983397
1c
#375983495
0d
#375983589
0c
#375983717
0c
#375983845
1c
#375984120
1c
#375984937
0c
#375985040
0d
#375985131
0c
#375985240
1c
#375985340
0c
#375985454
1c
#375985575
0c
#375985670
0d
#375985780
1c
#375985878
1d
#375985993
1c
#375986091
1d
#375986189
1c
#375986310
1d
#375986406
1c
#375986532
1c
#375986644
0c
#375986771
1c
#375987048
1c
#376084520
1d
#376084628
0c
#376084741
1c
#376084853
0c
#376084946
0d
#376085040
1c
#376085167
0c
#376085279
1c
#376085674
1c
#376092392
1d
#376092500
0c
#376092613
1c
#376092711
1d
#376092832
0c
#376092925
1d
#376093024
0c
#376093140
0d
#376093233
0c
#376093511
1c
#376094386
0c
#376094489
1d
#376100197
0c
#376100300
0d
#376100394
1c
#376100500
0c
#376100594
0d
#376100687
0c
#376100812
0c
#376100926
1c
#376101025
0d
#376101147
1c
#376101255
1d
#376101364
0c
#376101457
0d
#376101566
1c
#376101692
1c
#376101804
0c
#376101931
1c
#376102206
1c
#376103023
0c
#376103116
1d
#376103214
0c
#376103330
1c
#376103465
1c
#376103581
0c
#376103693
1c
#376103791
1d
#376103912
1d
#376103008
0c
#376104117
0c
#376104246
1c
#376104343
1d
#376104458
0c
#376104581
0c
#376104694
1c
#376104820
0c
#376104948
1c
#376105134
1c
#376707625
1d
#376707733
0c
#376707846
1c
#376707944
1d
#376708042
0c
#376708165
1d
#376708260
0c
#376708384
1c
#376708907
1c
#376792201
1d
#376792309
0c
#376792422
1c
#376792536
0c
#376792631
0d
#376792741
1c
#376792870
1c
#376793011
0c
#376793355
1c
#376800070
1d
#376800178
0c
#376800291
1c
#376800389
1d
#376800510
0c
#376800604
1d
#376800719
0c
#376800812
0d
#376800922
0c
#376801190
1c
#377050456
1d
#377050564
0c
#377050677
1c
#377050775
1d
#377050873
0c
#377050999
1d
#377050095
0c
#377051215
1c
#377051705
1c
#377114168
1d
#377114276
0c
#377114390
1c
#377114501
0c
#377114617
1d
#377114713
1c
#377114838
1c
#377114979
0c
#377115332
1c
#377122040
1d
#377122148
0c
#377122261
1c
#377122359
1d
#377122480
0c
#377122578
1d
#377122676
0c
#377122792
0d
#377122886
0c
#377123169
1c
#377344731
1d
#377344839
0c
#377344952
1c
#377345050
1d
#377345149
0c
#377345271
1d
#377345367
0c
#377345490
1c
#377345979
1c
#377401479
1d
#377401587
0c
#377401700
1c
#377401812
0c
#377401928
1d
#377401023
1c
#377402149
1c
#377402290
0c
#377402692
1c
#377409348
1d
#377409456
0c
#377409569
1c
#377409684
0d
#377409775
0c
#377409885
1c
#377409982
0d
#377410093
0c
#377410197
1c
#377410483
1c
#377666658
1d
#377666766
0c
#377666879
1c
#377666977
1d
#377667098
0c
#377667191
1d
#377667289
0c
#377667417
1c
#377667544
0d
#377667904
1c
#377730370
1d
#377730478
0c
#377730592
1c
#377730703
0c
#377730819
1d
#377730915
1c
#377731040
1c
#377731181
0c
#377731523
1c
#377738242
1d
#377738350
0c
#377738463
1c
#377738561
1d
#377738682
0c
#377738775
1d
#377738873
0c
#377738001
1c
#377739099
0d
#377739353
1c
#378002499
1d
#378002607
0c
#378002720
1c
#378002818
1d
#378002939
0c
#378003032
1d
#378003130
0c
#378003258
1c
#378003366
0d
#378003764
1c
#378059247
1d
#378059355
0c
#378059468
1c
#378059579
0c
#378059672
0d
#378059795
1c
#378059916
1c
#378060057
0c
#378060395
1c
#378067116
1d
#378067224
0c
#378067337
1c
#378067435
1d
#378067533
0c
#378067655
1d
#378067751
0c
#378067875
1c
#378067996
0d
#378068232
1c
#378331349
1d
#378331457
0c
#378331570
1c
#378331669
1d
#378331790
0c
#378331887
1d
#378331985
0c
#378332101
0d
#378332194
0c
#378332603
1c
#378408985
1d
#378409093
0c
#378409206
1c
#378409321
0c
#378409414
0d
#378409524
1c
#378409654
1c
#378409796
0c
#378410156
1c
#378416857
1d
#378416965
0c
#378417078
1c
#378417192
0d
#378417283
0c
#378417393
1c
#378417491
0d
#378417585
0c
#378417706
1c
#378417991
1c
#378611853
1d
#378611961
0c
#378612054
0d
#378612147
1c
#378612260
0c
#378612382
1d
#378612478
1c
#378612612
1c
#378613094
1c
#378710352
1d
#378710460
0c
#378710574
1c
#378710685
0c
#378710778
0d
#378710901
1c
#378711022
1c
#378711163
0c
#378711507
1c
#378718221
1d
#378718329
0c
#378718422
0d
#378718516
1c
#378718637
0c
#378718730
0d
#378718823
1c
#378718944
0d
#378718035
0c
#378719344
1c
#378954741
1d
#378954849
0c
#378954942
0d
#378955036
1c
#378955133
1d
#378955261
1c
#378955359
1d
#378955473
0c
#378955577
0d
#378955671
0c
#378955992
1c
#379018472
1d
#379018582
0c
#379018694
1c
#379018808
0c
#379018901
0d
#379019012
1c
#379019142
1c
#379019286
0c
#379019647
1c
#379026344
1d
#379026452
0c
#379026545
0d
#379026655
1c
#379026753
0d
#379026863
1c
#379026961
1d
#379027059
1c
#379027180
0d
#379027283
0c
#379027477
1c
#379255939
1d
#379256047
0c
#379256140
0d
#379256233
1c
#379256331
1d
#379256429
0c
#379256552
1d
#379256647
1c
#379256749
0c
#379257231
1c
#379319690
1d
#379319798
0c
#379319912
1c
#379320023
0c
#379320139
1d
#379320235
1c
#379320360
1c
#379320501
0c
#379320848
1c
#379327560
1d
#379327668
0c
#379327761
0d
#379327854
1c
#379327975
0d
#379327066
0c
#379328191
0c
#379328319
1c
#379328433
0d
#379328678
1c
#380076454
1d
#380076562
0c
#380076657
0d
#380076750
1c
#380076871
0d
#380076962
0c
#380077066
1d
#380077188
0c
#380077281
0d
#380077391
0c
#380077711
1c
#380161033
1d
#380161141
0c
#380161254
1c
#380161366
0c
#380161482
1d
#380161577
1c
#380161703
1c
#380161844
0c
#380162188
1c
#380168905
1d
#380169013
0c
#380169106
0d
#380169200
1c
#380169320
0d
#380169411
0c
#380169517
1d
#380169638
0c
#380169731
0d
#380169841
0c
#380170017
1c
#380980113
1d
#380980221
0c
#380980314
0d
#380980424
1c
#380980522
0d
#380980632
1c
#380980730
1d
#380980844
0c
#380980962
1c
#380981363
1c
#381057747
1d
#381057855
0c
#381057968
1c
#381058083
0c
#381058176
0d
#381058286
1c
#381058416
1c
#381058557
0c
#381058912
1c
#381065616
1d
#381065724
0c
#381065817
0d
#381065910
1c
#381066031
0d
#381066122
0c
#381066232
1d
#381066340
0c
#381066464
1c
#381066747
1c
#390109136
1d
#390109244
0c
#390109337
0d
#390109430
1c
#390109528
1d
#390109655
1c
#390109753
1d
#390109851
1c
#390109984
1c
#390110382
1c
#390242409
1d
#390242517
0c
#390242630
1c
#390242741
0c
#390242834
0d
#390242957
1c
#390243078
1c
#390243219
0c
#390243582
1c
#390250280
1d
#390250388
0c
#390250481
0d
#390250575
1c
#390250695
0d
#390250786
0c
#390250907
1d
