dumps/ps2e.vcd
$version Generated by PS2Sniffer $end
$date Mon Nov 7 21:25:00 2022 $end
$timescale 1us $end
$scope module TOP $end
$var wire 1 c clk $end
$var wire 1 d data $end
$upscope $end
$enddefinitions $end
#31036607
1c
1d
#37807689
0c
#37807692
1c
#37858606
0c
#37877391
1c
#38231572
0c
#38318579
1c
#39455578
0c
#39542584
1c
#40655688
0c
#40655775
1c
#40691461
0c
#40691468
0d
#40691539
1c
#40696053
0c
#40696070
1d
#40696092
1c
#40696129
0c
#40696167
1c
#40696206
0c
#40696243
1c
#40696281
0c
#40696320
1c
#40696358
0c
#40696395
1c
#40696433
0c
#40696472
1c
#40696509
0c
#40696548
1c
#40696586
0c
#40696623
1c
#40696670
0c
#40696708
1c
#40696745
0c
#40696784
1c
#40696834
0d
#40696855
0c
#40696892
1c
#40696911
1d
#40696912
0c
#40696989
1c
#40697027
0d
#40697047
0c
#40697085
1c
#40697138
0c
#40697176
1c
#40697193
1d
#40697213
0c
#40697250
1c
#40697268
0d
#40697288
0c
#40697325
1c
#40697342
1d
#40697363
0c
#40697400
1c
#40697436
0c
#40697475
1c
#40697511
0c
#40697550
1c
#40697586
0c
#40697624
1c
#40697661
0c
#40697699
1c
#40697751
0c
#40697788
1c
#40697840
0c
#40697879
1c
#40697883
0c
#40698058
1c
#41024064
0d
#41024084
0c
#41024121
1c
#41024175
0c
#41024212
1c
#41024229
1d
#41024250
0c
#41024287
1c
#41024304
0d
#41024325
0c
#41024362
1c
#41024379
1d
#41024398
0c
#41024437
1c
#41024454
0d
#41024473
0c
#41024512
1c
#41024529
1d
#41024548
0c
#41024587
1c
#41024602
0d
#41024623
0c
#41024660
1c
#41024677
1d
#41024698
0c
#41024735
1c
#41024787
0c
#41024826
1c
#41024878
0c
#41024915
1c
#41024921
0c
#41025224
1c
#41027059
0d
#41027078
0c
#41027117
1c
#41027150
1d
#41027169
0c
#41027208
1c
#41027244
0c
#41027283
1c
#41027319
0c
#41027356
1c
#41027394
0c
#41027431
1c
#41027469
0c
#41027506
1c
#41027542
0c
#41027581
1c
#41027599
0d
#41027617
0c
#41027656
1c
#41027672
1d
#41027692
0c
#41027730
1c
#41027762
0d
#41027781
0c
#41027820
1c
#41027852
1d
#41027872
0c
#41027909
1c
#41027914
0c
#41028234
1c
#41030066
0d
#41030087
0c
#41030124
1c
#41030159
1d
#41030177
0c
#41030216
1c
#41030232
0d
#41030252
0c
#41030290
1c
#41030327
0c
#41030365
1c
#41030403
0c
#41030440
1c
#41030457
1d
#41030476
0c
#41030515
1c
#41030551
0c
#41030590
1c
#41030605
0d
#41030626
0c
#41030663
1c
#41030680
1d
#41030701
0c
#41030738
1c
#41030790
0c
#41030829
1c
#41030881
0c
#41030918
1c
#41030923
0c
#41031241
1c
#41031902
0c
#41031910
0d
#41031980
1c
#41037877
0c
#41037894
1d
#41037916
1c
#41037954
0c
#41037969
0d
#41037992
1c
#41038029
0c
#41038046
1d
#41038068
1c
#41038105
0c
#41038122
0d
#41038143
1c
#41038182
0c
#41038199
1d
#41038219
1c
#41038257
0c
#41038296
1c
#41038333
0c
#41038372
1c
#41038410
0c
#41038448
1c
#41038495
0c
#41038532
1c
#41038570
0c
#41038609
1c
#41038659
0d
#41038679
0c
#41038717
1c
#41038735
1d
#41038738
0c
#41038817
1c
#41038854
0d
#41038874
0c
#41038912
1c
#41038965
0c
#41039003
1c
#41039020
1d
#41039040
0c
#41039078
1c
#41039095
0d
#41039115
0c
#41039153
1c
#41039170
1d
#41039189
0c
#41039228
1c
#41039264
0c
#41039303
1c
#41039339
0c
#41039376
1c
#41039414
0c
#41039451
1c
#41039489
0c
#41039526
1c
#41039578
0c
#41039615
1c
#41039667
0c
#41039706
1c
#41039711
0c
#41039885
1c
#41053285
0c
#41053294
0d
#41053363
1c
#41053393
0c
#41053430
1c
#41053468
0c
#41053507
1c
#41053544
0c
#41053560
1d
#41053582
1c
#41053621
0c
#41053636
0d
#41053658
1c
#41053696
0c
#41053713
1d
#41053735
1c
#41053772
0c
#41053810
1c
#41053849
0c
#41053886
1c
#41053924
0c
#41053963
1c
#41054009
0c
#41054026
0d
#41054046
1c
#41054085
0c
#41054102
1d
#41054122
1c
#41054174
0d
#41054193
0c
#41054232
1c
#41054249
1d
#41054252
0c
#41054330
1c
#41054366
0d
#41054387
0c
#41054424
1c
#41054478
0c
#41054515
1c
#41054532
1d
#41054552
0c
#41054590
1c
#41054607
0d
#41054626
0c
#41054665
1c
#41054682
1d
#41054701
0c
#41054740
1c
#41054776
0c
#41054815
1c
#41054851
0c
#41054888
1c
#41054926
0c
#41054963
1c
#41055001
0c
#41055039
1c
#41055090
0c
#41055128
1c
#41055180
0c
#41055217
1c
#41055222
0c
#41055402
1c
#106529266
0c
#106616271
1c
#106751078
0c
#106751164
1c
#106751721
0c
#106751729
0d
#106751799
1c
#106756500
0c
#106756518
1d
#106756538
1c
#106756576
0c
#106756613
1c
#106756653
0c
#106756690
1c
#106756728
0c
#106756767
1c
#106756804
0c
#106756842
1c
#106756881
0c
#106756918
1c
#106756956
0c
#106756995
1c
#106757033
0c
#106757070
1c
#106757116
0c
#106757155
1c
#106757192
0c
#106757231
1c
#106757281
0d
#106757302
0c
#106757339
1c
#106757358
1d
#106757360
0c
#106757436
1c
#106757474
0d
#106757494
0c
#106757532
1c
#106757585
0c
#106757624
1c
#106757639
1d
#106757660
0c
#106757697
1c
#106757714
0d
#106757735
0c
#106757772
1c
#106757789
1d
#106757810
0c
#106757847
1c
#106757885
0c
#106757922
1c
#106757958
0c
#106757997
1c
#106758034
0c
#106758071
1c
#106758109
0c
#106758146
1c
#106758198
0c
#106758235
1c
#106758287
0c
#106758326
1c
#106758329
0c
#106758506
1c
#107084506
0d
#107084526
0c
#107084564
1c
#107084617
0c
#107084655
1c
#107084672
1d
#107084692
0c
#107084730
1c
#107084747
0d
#107084767
0c
#107084804
1c
#107084822
1d
#107084842
0c
#107084879
1c
#107084897
0d
#107084915
0c
#107084954
1c
#107084971
1d
#107084990
0c
#107085030
1c
#107085045
0d
#107085066
0c
#107085103
1c
#107085120
1d
#107085140
0c
#107085178
1c
#107085230
0c
#107085267
1c
#107085319
0c
#107085358
1c
#107085362
0c
#107085671
1c
#107087502
0d
#107087521
0c
#107087560
1c
#107087593
1d
#107087611
0c
#107087650
1c
#107087686
0c
#107087725
1c
#107087761
0c
#107087799
1c
#107087837
0c
#107087874
1c
#107087912
0c
#107087949
1c
#107087985
0c
#107088023
1c
#107088040
0d
#107088060
0c
#107088098
1c
#107088115
1d
#107088135
0c
#107088173
1c
#107088205
0d
#107088224
0c
#107088263
1c
#107088295
1d
#107088315
0c
#107088352
1c
#107088359
0c
#107088682
1c
#107090508
0d
#107090526
0c
#107090565
1c
#107090598
1d
#107090617
0c
#107090656
1c
#107090673
0d
#107090692
0c
#107090731
1c
#107090767
0c
#107090804
1c
#107090842
0c
#107090879
1c
#107090897
1d
#107090917
0c
#107090954
1c
#107090990
0c
#107091030
1c
#107091047
0d
#107091066
0c
#107091103
1c
#107091120
1d
#107091141
0c
#107091178
1c
#107091230
0c
#107091269
1c
#107091320
0c
#107091358
1c
#107091363
0c
#107091689
1c
#107229925
0c
#107230013
1c
#107230569
0c
#107230578
0d
#107230647
1c
#107236795
0c
#107236812
1d
#107236834
1c
#107236871
0c
#107236910
1c
#107236948
0c
#107236985
1c
#107237024
0c
#107237062
1c
#107237100
0c
#107237137
1c
#107237175
0c
#107237214
1c
#107237252
0c
#107237291
1c
#107237328
0c
#107237366
1c
#107237413
0c
#107237450
1c
#107237488
0c
#107237527
1c
#107237577
0d
#107237597
0c
#107237635
1c
#107237653
1d
#107237656
0c
#107237733
1c
#107237771
0d
#107237789
0c
#107237828
1c
#107237880
0c
#107237919
1c
#107237936
1d
#107237955
0c
#107237994
1c
#107238010
0d
#107238030
0c
#107238068
1c
#107238085
1d
#107238105
0c
#107238143
1c
#107238179
0c
#107238218
1c
#107238254
0c
#107238293
1c
#107238329
0c
#107238366
1c
#107238404
0c
#107238441
1c
#107238493
0c
#107238531
1c
#107238582
0c
#107238621
1c
#107238626
0c
#107238801
1c
#107564802
0d
#107564822
0c
#107564860
1c
#107564913
0c
#107564951
1c
#107564968
1d
#107564988
0c
#107565026
1c
#107565043
0d
#107565062
0c
#107565101
1c
#107565116
1d
#107565137
0c
#107565174
1c
#107565191
0d
#107565212
0c
#107565249
1c
#107565266
1d
#107565287
0c
#107565324
1c
#107565341
0d
#107565362
0c
#107565399
1c
#107565416
1d
#107565435
0c
#107565474
1c
#107565526
0c
#107565563
1c
#107565615
0c
#107565652
1c
#107565659
0c
#107565967
1c
#107567795
0d
#107567814
0c
#107567851
1c
#107567885
1d
#107567904
0c
#107567943
1c
#107567979
0c
#107568017
1c
#107568055
0c
#107568092
1c
#107568128
0c
#107568167
1c
#107568203
0c
#107568242
1c
#107568278
0c
#107568316
1c
#107568333
0d
#107568353
0c
#107568391
1c
#107568408
1d
#107568428
0c
#107568466
1c
#107568498
0d
#107568517
0c
#107568555
1c
#107568587
1d
#107568606
0c
#107568645
1c
#107568650
0c
#107568978
1c
#107570800
0d
#107570819
0c
#107570858
1c
#107570891
1d
#107570910
0c
#107570949
1c
#107570966
0d
#107570985
0c
#107571023
1c
#107571060
0c
#107571098
1c
#107571135
0c
#107571173
1c
#107571190
1d
#107571209
0c
#107571248
1c
#107571284
0c
#107571323
1c
#107571338
0d
#107571359
0c
#107571396
1c
#107571413
1d
#107571433
0c
#107571471
1c
#107571523
0c
#107571562
1c
#107571613
0c
#107571651
1c
#107571655
0c
#107571985
1c
#108248076
0c
#108248086
0d
#108248155
1c
#108250230
0c
#108250269
1c
#108250307
0c
#108250324
1d
#108250344
1c
#108250383
0c
#108250421
1c
#108250458
0c
#108250474
0d
#108250497
1c
#108250535
0c
#108250572
1c
#108250611
0c
#108250628
1d
#108250649
1c
#108250686
0c
#108250725
1c
#108250763
0c
#108250800
1c
#108250847
0c
#108250863
0d
#108250885
1c
#108250924
0c
#108250941
1d
#108250961
1c
#108251012
0d
#108251032
0c
#108251069
1c
#108251088
1d
#108251094
0c
#108251173
1c
#108251209
0d
#108251229
0c
#108251266
1c
#108251320
0c
#108251357
1c
#108251395
0c
#108251432
1c
#108251449
1d
#108251470
0c
#108251507
1c
#108251545
0c
#108251582
1c
#108251618
0c
#108251657
1c
#108251693
0c
#108251731
1c
#108251768
0c
#108251806
1c
#108251843
0c
#108251881
1c
#108251932
0c
#108251970
1c
#108252022
0c
#108252059
1c
#108252066
0c
#108252262
1c
#111889492
0c
#111889581
1c
#111892129
0c
#111892139
0d
#111892208
1c
#111894074
0c
#111894091
1d
#111894113
1c
#111894151
0c
#111894168
0d
#111894190
1c
#111894227
0c
#111894243
1d
#111894265
1c
#111894304
0c
#111894319
0d
#111894341
1c
#111894379
0c
#111894396
1d
#111894418
1c
#111894455
0c
#111894493
1c
#111894532
0c
#111894569
1c
#111894607
0c
#111894646
1c
#111894691
0c
#111894730
1c
#111894768
0c
#111894805
1c
#111894857
0d
#111894876
0c
#111894915
1c
#111894932
1d
#111894940
0c
#111895019
1c
#111895059
0d
#111895079
0c
#111895117
1c
#111895170
0c
#111895208
1c
#111895225
1d
#111895245
0c
#111895283
1c
#111895300
0d
#111895318
0c
#111895357
1c
#111895375
1d
#111895393
0c
#111895432
1c
#111895468
0c
#111895506
1c
#111895543
0c
#111895581
1c
#111895619
0c
#111895656
1c
#111895692
0c
#111895731
1c
#111895783
0c
#111895820
1c
#111895872
0c
#111895909
1c
#111895917
0c
#111896091
1c
#111896907
0c
#111896915
0d
#111896986
1c
#111897008
0c
#111897025
1d
#111897047
1c
#111897084
0c
#111897123
1c
#111897161
0c
#111897178
0d
#111897198
1c
#111897238
0c
#111897275
1c
#111897313
0c
#111897329
1d
#111897351
1c
#111897389
0c
#111897426
1c
#111897466
0c
#111897503
1c
#111897541
0c
#111897580
1c
#111897625
0c
#111897663
1c
#111897702
0c
#111897739
1c
#111897791
0d
#111897810
0c
#111897849
1c
#111897866
1d
#111897869
0c
#111897946
1c
#111897983
0d
#111898003
0c
#111898041
1c
#111898093
0c
#111898132
1c
#111898149
1d
#111898168
0c
#111898207
1c
#111898224
0d
#111898243
0c
#111898282
1c
#111898299
1d
#111898318
0c
#111898355
1c
#111898393
0c
#111898430
1c
#111898468
0c
#111898505
1c
#111898541
0c
#111898580
1c
#111898616
0c
#111898655
1c
#111898707
0c
#111898745
1c
#111898796
0c
#111898834
1c
#111898840
0c
#111899021
1c
#111899835
0c
#111899844
0d
#111899913
1c
#111899938
0c
#111899955
1d
#111899976
1c
#111900014
0c
#111900053
1c
#111900090
0c
#111900107
0d
#111900129
1c
#111900167
0c
#111900184
1d
#111900204
1c
#111900243
0c
#111900259
0d
#111900281
1c
#111900318
0c
#111900357
1c
#111900395
0c
#111900412
1d
#111900432
1c
#111900471
0c
#111900488
0d
#111900509
1c
#111900556
0c
#111900571
1d
#111900593
1c
#111900631
0c
#111900670
1c
#111900720
0d
#111900740
0c
#111900777
1c
#111900796
1d
#111900798
0c
#111900874
1c
#111900912
0d
#111900931
0c
#111900970
1c
#111901022
0c
#111901061
1c
#111901078
1d
#111901097
0c
#111901134
1c
#111901151
0d
#111901172
0c
#111901209
1c
#111901226
1d
#111901247
0c
#111901284
1c
#111901322
0c
#111901359
1c
#111901395
0c
#111901434
1c
#111901470
0c
#111901508
1c
#111901545
0c
#111901583
1c
#111901634
0c
#111901673
1c
#111901724
0c
#111901762
1c
#111901767
0c
#111901949
1c
#111902764
0c
#111902773
0d
#111902842
1c
#111902870
0c
#111902909
1c
#111902947
0c
#111902984
1c
#111903022
0c
#111903041
1d
#111903061
1c
#111903099
0c
#111903136
1c
#111903175
0c
#111903213
1c
#111903250
0c
#111903289
1c
#111903327
0c
#111903364
1c
#111903403
0c
#111903441
1c
#111903488
0c
#111903525
1c
#111903563
0c
#111903602
1c
#111903652
0d
#111903672
0c
#111903710
1c
#111903729
1d
#111903732
0c
#111903808
1c
#111903846
0d
#111903866
0c
#111903904
1c
#111903957
0c
#111903994
1c
#111904012
1d
#111904032
0c
#111904070
1c
#111904087
0d
#111904107
0c
#111904145
1c
#111904162
1d
#111904181
0c
#111904220
1c
#111904256
0c
#111904295
1c
#111904331
0c
#111904368
1c
#111904406
0c
#111904443
1c
#111904481
0c
#111904518
1c
#111904570
0c
#111904607
1c
#111904659
0c
#111904698
1c
#111904703
0c
#111904883
1c
#111907158
0c
#111907167
0d
#111907236
1c
#111907260
0c
#111907299
1c
#111907336
0c
#111907374
1c
#111907413
0c
#111907450
1c
#111907488
0c
#111907503
1d
#111907527
1c
#111907564
0c
#111907602
1c
#111907641
0c
#111907658
0d
#111907678
1c
#111907716
0c
#111907734
1d
#111907755
1c
#111907792
0c
#111907808
0d
#111907831
1c
#111907877
0c
#111907914
1c
#111907953
0c
#111907970
1d
#111907991
1c
#111908041
0d
#111908062
0c
#111908099
1c
#111908118
1d
#111908121
0c
#111908197
1c
#111909207
0d
#111909227
0c
#111909265
1c
#111909318
0c
#111909355
1c
#111909372
1d
#111909393
0c
#111909430
1c
#111909447
0d
#111909468
0c
#111909505
1c
#111909522
1d
#111909543
0c
#111909580
1c
#111909616
0c
#111909655
1c
#111909691
0c
#111909729
1c
#111909766
0c
#111909804
1c
#111909841
0c
#111909879
1c
#111909930
0c
#111909968
1c
#111910020
0c
#111910057
1c
#111910064
0c
#111910250
1c
#111913618
0c
#111913625
0d
#111913696
1c
#111913718
0c
#111913757
1c
#111913794
0c
#111913813
1d
#111913833
1c
#111913871
0c
#111913886
0d
#111913908
1c
#111913946
0c
#111913963
1d
#111913985
1c
#111914023
0c
#111914060
1c
#111914099
0c
#111914137
1c
#111914174
0c
#111914213
1c
#111914251
0c
#111914288
1c
#111914335
0c
#111914373
1c
#111914410
0c
#111914449
1c
#111914500
0d
#111914520
0c
#111914557
1c
#111914576
1d
#111914579
0c
#111914657
1c
#111916234
0d
#111916254
0c
#111916291
1c
#111916345
0c
#111916384
1c
#111916401
1d
#111916420
0c
#111916457
1c
$version Generated by PS2Sniffer $end
$date Mon Nov 7 21:25:00 2022 $end
$timescale 1us $end
$scope module TOP $end
$var wire 1 c clk $end
$var wire 1 d data $end
$upscope $end
$enddefinitions $end
#111996431
1c
1d
